{
    "server": {
        "auth": {
            "saltFactor": 10,
            "secretKey": "SuperSecretStuff"
        },
        "apiUrl": "http://localhost:3001",
        "emailService": {
            "enabled": false,
            "user": "example@example.com",
            "apiKey": "api_key_from_sendgrid.com"
        },
        "connection": {
            "port": 3001,
            "routes": {
                "cors": {
                    "origin": [
                        "*"
                    ],
                    "headers": [
                        "Access-Control-Allow-Origin",
                        "Access-Control-Allow-Headers",
                        "Origin",
                        "X-Requested-With",
                        "Content-Type",
                        "Authorization"
                    ],
                    "credentials": true
                }
            },
            "host": "localhost"
        }
    },
    "mongodb": {
        "uri": "mongodb://localhost/user_management"
    }
}